{
    "version": "7.2.0",
    "tables": {
        "tt_content": {
            "elements": {
                "carousel": {
                    "color": "#000000",
                    "colorOverlay": "#000000",
                    "columns": [
                        "tx_mask_bb18378b91701",
                        "tx_mask_image"
                    ],
                    "description": "",
                    "descriptions": [
                        "",
                        ""
                    ],
                    "icon": "fa-image",
                    "iconOverlay": "",
                    "key": "carousel",
                    "label": "Carousel",
                    "labels": [
                        "",
                        "Items"
                    ],
                    "shortLabel": "",
                    "sorting": 0
                }
            },
            "palettes": {
                "tx_mask_bb18378b91701": {
                    "description": "",
                    "label": "",
                    "showitem": [
                        "header",
                        "tx_mask_55f2378b1b418",
                        "header_layout",
                        "header_position",
                        "tx_mask_7e7136d22b5f",
                        "subheader"
                    ]
                }
            },
            "sql": {
                "tx_mask_image": {
                    "tt_content": {
                        "tx_mask_image": "int(11) unsigned DEFAULT '0' NOT NULL"
                    }
                }
            },
            "tca": {
                "header": {
                    "coreField": 1,
                    "description": {
                        "accordeon": "",
                        "boite__onglet": "",
                        "boite_contact": "",
                        "call_to_action": "",
                        "carousel": "",
                        "client": "",
                        "en_chiffres": "",
                        "footer_right": "",
                        "footer_text": "",
                        "joueur": "",
                        "liste_de_liens": "",
                        "portfolio": "",
                        "team_section": "",
                        "text_section": ""
                    },
                    "fullKey": "header",
                    "inPalette": 1,
                    "inlineParent": {
                        "accordeon": "tx_mask_3dd24da6a0889",
                        "boite__onglet": "tx_mask_e14a0e6a5050d",
                        "boite_contact": "tx_mask_c6f0b1d87fc2d",
                        "call_to_action": "tx_mask_b2f3d03dcbe76",
                        "carousel": "tx_mask_bb18378b91701",
                        "client": "tx_mask_91a176ac43a7f",
                        "en_chiffres": "tx_mask_39c99960742f5",
                        "footer_right": "tx_mask_b16debec2a20a",
                        "footer_text": "tx_mask_e14b299a41ea6",
                        "joueur": "tx_mask_78f40f088b985",
                        "liste_de_liens": "tx_mask_ee223932dc689",
                        "portfolio": "tx_mask_06c3f48f65fe8",
                        "team_section": "tx_mask_d5a65c67cf56c",
                        "text_section": "tx_mask_fde3473f3a2ae"
                    },
                    "key": "header",
                    "label": {
                        "accordeon": "Titre",
                        "boite__onglet": "Titre",
                        "boite_contact": "Titre",
                        "call_to_action": "Titre",
                        "carousel": "Titre",
                        "client": "Titre",
                        "en_chiffres": "Titre",
                        "footer_right": "Titre",
                        "footer_text": "Titre",
                        "joueur": "Titre",
                        "liste_de_liens": "Titre",
                        "portfolio": "Titre",
                        "team_section": "Titre",
                        "text_section": "Titre"
                    },
                    "order": {
                        "accordeon": 1,
                        "boite__onglet": 1,
                        "boite_contact": 1,
                        "call_to_action": 1,
                        "carousel": 1,
                        "client": 1,
                        "en_chiffres": 1,
                        "footer_right": 1,
                        "footer_text": 1,
                        "joueur": 1,
                        "liste_de_liens": 1,
                        "portfolio": 1,
                        "team_section": 1,
                        "text_section": 1
                    },
                    "type": "string"
                },
                "header_layout": {
                    "coreField": 1,
                    "description": {
                        "accordeon": "",
                        "boite__onglet": "",
                        "boite_contact": "",
                        "call_to_action": "",
                        "carousel": "",
                        "client": "",
                        "en_chiffres": "",
                        "footer_right": "",
                        "footer_text": "",
                        "joueur": "",
                        "liste_de_liens": "",
                        "portfolio": "",
                        "team_section": "",
                        "text_section": ""
                    },
                    "fullKey": "header_layout",
                    "inPalette": 1,
                    "inlineParent": {
                        "accordeon": "tx_mask_3dd24da6a0889",
                        "boite__onglet": "tx_mask_e14a0e6a5050d",
                        "boite_contact": "tx_mask_c6f0b1d87fc2d",
                        "call_to_action": "tx_mask_b2f3d03dcbe76",
                        "carousel": "tx_mask_bb18378b91701",
                        "client": "tx_mask_91a176ac43a7f",
                        "en_chiffres": "tx_mask_39c99960742f5",
                        "footer_right": "tx_mask_b16debec2a20a",
                        "footer_text": "tx_mask_e14b299a41ea6",
                        "joueur": "tx_mask_78f40f088b985",
                        "liste_de_liens": "tx_mask_ee223932dc689",
                        "portfolio": "tx_mask_06c3f48f65fe8",
                        "team_section": "tx_mask_d5a65c67cf56c",
                        "text_section": "tx_mask_fde3473f3a2ae"
                    },
                    "key": "header_layout",
                    "label": {
                        "accordeon": "Type",
                        "boite__onglet": "Type",
                        "boite_contact": "Type",
                        "call_to_action": "Type",
                        "carousel": "Type",
                        "client": "Type",
                        "en_chiffres": "Type",
                        "footer_right": "Type",
                        "footer_text": "Type",
                        "joueur": "Type",
                        "liste_de_liens": "Type",
                        "portfolio": "Type",
                        "team_section": "Type",
                        "text_section": "Type"
                    },
                    "order": {
                        "accordeon": 3,
                        "boite__onglet": 3,
                        "boite_contact": 3,
                        "call_to_action": 3,
                        "carousel": 3,
                        "client": 3,
                        "en_chiffres": 3,
                        "footer_right": 3,
                        "footer_text": 3,
                        "joueur": 3,
                        "liste_de_liens": 3,
                        "portfolio": 3,
                        "team_section": 3,
                        "text_section": 3
                    },
                    "type": "select"
                },
                "header_position": {
                    "coreField": 1,
                    "description": {
                        "accordeon": "",
                        "boite__onglet": "",
                        "boite_contact": "",
                        "carousel": "",
                        "en_chiffres": "",
                        "liste_de_liens": ""
                    },
                    "fullKey": "header_position",
                    "inPalette": 1,
                    "inlineParent": {
                        "boite__onglet": "tx_mask_e14a0e6a5050d",
                        "boite_contact": "tx_mask_c6f0b1d87fc2d",
                        "carousel": "tx_mask_bb18378b91701",
                        "en_chiffres": "tx_mask_39c99960742f5",
                        "liste_de_liens": "tx_mask_ee223932dc689"
                    },
                    "key": "header_position",
                    "label": {
                        "boite__onglet": "Alignement",
                        "boite_contact": "Alignement",
                        "carousel": "Alignement",
                        "en_chiffres": "Alignement",
                        "liste_de_liens": "Alignement"
                    },
                    "order": {
                        "boite__onglet": 4,
                        "boite_contact": 4,
                        "carousel": 4,
                        "en_chiffres": 4,
                        "liste_de_liens": 4
                    },
                    "type": "select"
                },
                "subheader": {
                    "coreField": 1,
                    "description": {
                        "accordeon": "",
                        "boite__onglet": "",
                        "boite_contact": "",
                        "call_to_action": "",
                        "carousel": "",
                        "client": "",
                        "en_chiffres": "",
                        "footer_right": "",
                        "footer_text": "",
                        "joueur": "",
                        "liste_de_liens": "",
                        "portfolio": "",
                        "team_section": "",
                        "text_section": ""
                    },
                    "fullKey": "subheader",
                    "inPalette": 1,
                    "inlineParent": {
                        "accordeon": "tx_mask_3dd24da6a0889",
                        "boite__onglet": "tx_mask_e14a0e6a5050d",
                        "boite_contact": "tx_mask_c6f0b1d87fc2d",
                        "call_to_action": "tx_mask_b2f3d03dcbe76",
                        "carousel": "tx_mask_bb18378b91701",
                        "client": "tx_mask_91a176ac43a7f",
                        "en_chiffres": "tx_mask_39c99960742f5",
                        "footer_right": "tx_mask_b16debec2a20a",
                        "footer_text": "tx_mask_e14b299a41ea6",
                        "joueur": "tx_mask_78f40f088b985",
                        "liste_de_liens": "tx_mask_ee223932dc689",
                        "portfolio": "tx_mask_06c3f48f65fe8",
                        "team_section": "tx_mask_d5a65c67cf56c",
                        "text_section": "tx_mask_fde3473f3a2ae"
                    },
                    "key": "subheader",
                    "label": {
                        "accordeon": "Sous-Titre",
                        "boite__onglet": "Sous-Titre",
                        "boite_contact": "Sous-Titre",
                        "call_to_action": "Sous-Titre",
                        "carousel": "Sous-Titre",
                        "client": "Sous-Titre",
                        "en_chiffres": "Sous-Titre",
                        "footer_right": "Sous-Titre",
                        "footer_text": "Sous-Titre",
                        "joueur": "Sous-Titre",
                        "liste_de_liens": "Sous-Titre",
                        "portfolio": "Sous-Titre",
                        "team_section": "Sous-Titre",
                        "text_section": "Sous-Titre"
                    },
                    "order": {
                        "accordeon": 5,
                        "boite__onglet": 6,
                        "boite_contact": 6,
                        "call_to_action": 5,
                        "carousel": 6,
                        "client": 5,
                        "en_chiffres": 6,
                        "footer_right": 5,
                        "footer_text": 5,
                        "joueur": 5,
                        "liste_de_liens": 6,
                        "portfolio": 5,
                        "team_section": 5,
                        "text_section": 5
                    },
                    "type": "string"
                },
                "tx_mask_55f2378b1b418": {
                    "config": {
                        "type": "linebreak"
                    },
                    "description": {
                        "carousel": ""
                    },
                    "fullKey": "tx_mask_55f2378b1b418",
                    "inPalette": 1,
                    "inlineParent": {
                        "carousel": "tx_mask_bb18378b91701"
                    },
                    "key": "55f2378b1b418",
                    "label": {
                        "carousel": ""
                    },
                    "order": {
                        "carousel": 2
                    },
                    "type": "linebreak"
                },
                "tx_mask_7e7136d22b5f": {
                    "config": {
                        "type": "linebreak"
                    },
                    "description": {
                        "carousel": ""
                    },
                    "fullKey": "tx_mask_7e7136d22b5f",
                    "inPalette": 1,
                    "inlineParent": {
                        "carousel": "tx_mask_bb18378b91701"
                    },
                    "key": "7e7136d22b5f",
                    "label": {
                        "carousel": ""
                    },
                    "order": {
                        "carousel": 5
                    },
                    "type": "linebreak"
                },
                "tx_mask_bb18378b91701": {
                    "config": {
                        "type": "palette"
                    },
                    "fullKey": "tx_mask_bb18378b91701",
                    "key": "bb18378b91701",
                    "type": "palette"
                },
                "tx_mask_image": {
                    "config": {
                        "appearance": {
                            "enabledControls": {
                                "delete": 1,
                                "dragdrop": 1,
                                "hide": 1,
                                "info": 1,
                                "localize": 1,
                                "new": 1,
                                "sort": 1
                            },
                            "levelLinksPosition": "top",
                            "showAllLocalizationLink": 1,
                            "showNewRecordLink": 1,
                            "showPossibleLocalizationRecords": 1,
                            "useSortable": 1
                        },
                        "foreign_field": "parentid",
                        "foreign_sortby": "sorting",
                        "foreign_table": "--inlinetable--",
                        "foreign_table_field": "parenttable",
                        "type": "inline"
                    },
                    "fullKey": "tx_mask_image",
                    "key": "image",
                    "type": "inline"
                }
            }
        },
        "tx_mask_image": {
            "palettes": {
                "tx_mask_818c15f226fc4": {
                    "description": "",
                    "label": "",
                    "showitem": [
                        "tx_mask_label_link",
                        "tx_mask_link"
                    ]
                }
            },
            "sql": {
                "tx_mask_description_item": {
                    "tx_mask_image": {
                        "tx_mask_description_item": "mediumtext"
                    }
                },
                "tx_mask_image_carousel": {
                    "tx_mask_image": {
                        "tx_mask_image_carousel": "int(11) unsigned DEFAULT '0' NOT NULL"
                    }
                },
                "tx_mask_label_link": {
                    "tx_mask_image": {
                        "tx_mask_label_link": "varchar(255) DEFAULT '' NOT NULL"
                    }
                },
                "tx_mask_link": {
                    "tx_mask_image": {
                        "tx_mask_link": "varchar(255) DEFAULT '' NOT NULL"
                    }
                },
                "tx_mask_titre_img": {
                    "tx_mask_image": {
                        "tx_mask_titre_img": "varchar(255) DEFAULT '' NOT NULL"
                    }
                }
            },
            "tca": {
                "tx_mask_818c15f226fc4": {
                    "config": {
                        "type": "palette"
                    },
                    "fullKey": "tx_mask_818c15f226fc4",
                    "inlineParent": "tx_mask_image",
                    "key": "818c15f226fc4",
                    "order": 3,
                    "type": "palette"
                },
                "tx_mask_description_item": {
                    "config": {
                        "enableRichtext": 1,
                        "type": "text"
                    },
                    "fullKey": "tx_mask_description_item",
                    "inlineParent": "tx_mask_image",
                    "key": "description_item",
                    "label": "Description",
                    "order": 4,
                    "type": "richtext"
                },
                "tx_mask_image_carousel": {
                    "config": {
                        "appearance": {
                            "elementBrowserEnabled": 1,
                            "enabledControls": {
                                "delete": 1,
                                "dragdrop": 1,
                                "hide": 1,
                                "info": 1,
                                "localize": 1,
                                "sort": 0
                            },
                            "fileByUrlAllowed": 1,
                            "fileUploadAllowed": 1,
                            "useSortable": 1
                        },
                        "foreign_table": "sys_file_reference",
                        "minitems": "1",
                        "type": "inline"
                    },
                    "fullKey": "tx_mask_image_carousel",
                    "inlineParent": "tx_mask_image",
                    "key": "image_carousel",
                    "label": "Media",
                    "onlineMedia": [
                        "youtube",
                        "vimeo"
                    ],
                    "order": 2,
                    "type": "media"
                },
                "tx_mask_label_link": {
                    "config": {
                        "type": "input"
                    },
                    "fullKey": "tx_mask_label_link",
                    "inPalette": 1,
                    "inlineParent": "tx_mask_818c15f226fc4",
                    "key": "label_link",
                    "label": "Label du lien",
                    "order": 1,
                    "type": "string"
                },
                "tx_mask_link": {
                    "config": {
                        "renderType": "inputLink",
                        "type": "input"
                    },
                    "fullKey": "tx_mask_link",
                    "inPalette": 1,
                    "inlineParent": "tx_mask_818c15f226fc4",
                    "key": "link",
                    "label": "Lien",
                    "order": 2,
                    "type": "link"
                },
                "tx_mask_titre_img": {
                    "config": {
                        "eval": "required",
                        "type": "input"
                    },
                    "fullKey": "tx_mask_titre_img",
                    "inlineParent": "tx_mask_image",
                    "key": "titre_img",
                    "label": "Titre",
                    "order": 1,
                    "type": "string"
                }
            }
        }
    }
}
