{
    "version": "7.2.0",
    "tables": {
        "tt_content": {
            "elements": {
                "en_chiffres": {
                    "color": "#000000",
                    "colorOverlay": "#000000",
                    "columns": [
                        "tx_mask_39c99960742f5",
                        "tx_mask_chiffre_repeat"
                    ],
                    "description": "",
                    "descriptions": [
                        "",
                        ""
                    ],
                    "icon": "fa-sort-numeric-asc",
                    "iconOverlay": "",
                    "key": "en_chiffres",
                    "label": "En chiffres",
                    "labels": [
                        "",
                        "Items"
                    ],
                    "shortLabel": "",
                    "sorting": 1
                }
            },
            "palettes": {
                "tx_mask_39c99960742f5": {
                    "description": "",
                    "label": "",
                    "showitem": [
                        "header",
                        "tx_mask_7d1cdb2eece8a",
                        "header_layout",
                        "header_position",
                        "tx_mask_94c2c9a8e018c",
                        "subheader"
                    ]
                }
            },
            "sql": {
                "tx_mask_chiffre_repeat": {
                    "tt_content": {
                        "tx_mask_chiffre_repeat": "int(11) unsigned DEFAULT '0' NOT NULL"
                    }
                }
            },
            "tca": {
                "header": {
                    "coreField": 1,
                    "description": {
                        "accordeon": "",
                        "boite__onglet": "",
                        "boite_contact": "",
                        "call_to_action": "",
                        "carousel": "",
                        "client": "",
                        "en_chiffres": "",
                        "footer_right": "",
                        "footer_text": "",
                        "joueur": "",
                        "liste_de_liens": "",
                        "portfolio": "",
                        "team_section": "",
                        "text_section": ""
                    },
                    "fullKey": "header",
                    "inPalette": 1,
                    "inlineParent": {
                        "accordeon": "tx_mask_3dd24da6a0889",
                        "boite__onglet": "tx_mask_e14a0e6a5050d",
                        "boite_contact": "tx_mask_c6f0b1d87fc2d",
                        "call_to_action": "tx_mask_b2f3d03dcbe76",
                        "carousel": "tx_mask_bb18378b91701",
                        "client": "tx_mask_91a176ac43a7f",
                        "en_chiffres": "tx_mask_39c99960742f5",
                        "footer_right": "tx_mask_b16debec2a20a",
                        "footer_text": "tx_mask_e14b299a41ea6",
                        "joueur": "tx_mask_78f40f088b985",
                        "liste_de_liens": "tx_mask_ee223932dc689",
                        "portfolio": "tx_mask_06c3f48f65fe8",
                        "team_section": "tx_mask_d5a65c67cf56c",
                        "text_section": "tx_mask_fde3473f3a2ae"
                    },
                    "key": "header",
                    "label": {
                        "accordeon": "Titre",
                        "boite__onglet": "Titre",
                        "boite_contact": "Titre",
                        "call_to_action": "Titre",
                        "carousel": "Titre",
                        "client": "Titre",
                        "en_chiffres": "Titre",
                        "footer_right": "Titre",
                        "footer_text": "Titre",
                        "joueur": "Titre",
                        "liste_de_liens": "Titre",
                        "portfolio": "Titre",
                        "team_section": "Titre",
                        "text_section": "Titre"
                    },
                    "order": {
                        "accordeon": 1,
                        "boite__onglet": 1,
                        "boite_contact": 1,
                        "call_to_action": 1,
                        "carousel": 1,
                        "client": 1,
                        "en_chiffres": 1,
                        "footer_right": 1,
                        "footer_text": 1,
                        "joueur": 1,
                        "liste_de_liens": 1,
                        "portfolio": 1,
                        "team_section": 1,
                        "text_section": 1
                    },
                    "type": "string"
                },
                "header_layout": {
                    "coreField": 1,
                    "description": {
                        "accordeon": "",
                        "boite__onglet": "",
                        "boite_contact": "",
                        "call_to_action": "",
                        "carousel": "",
                        "client": "",
                        "en_chiffres": "",
                        "footer_right": "",
                        "footer_text": "",
                        "joueur": "",
                        "liste_de_liens": "",
                        "portfolio": "",
                        "team_section": "",
                        "text_section": ""
                    },
                    "fullKey": "header_layout",
                    "inPalette": 1,
                    "inlineParent": {
                        "accordeon": "tx_mask_3dd24da6a0889",
                        "boite__onglet": "tx_mask_e14a0e6a5050d",
                        "boite_contact": "tx_mask_c6f0b1d87fc2d",
                        "call_to_action": "tx_mask_b2f3d03dcbe76",
                        "carousel": "tx_mask_bb18378b91701",
                        "client": "tx_mask_91a176ac43a7f",
                        "en_chiffres": "tx_mask_39c99960742f5",
                        "footer_right": "tx_mask_b16debec2a20a",
                        "footer_text": "tx_mask_e14b299a41ea6",
                        "joueur": "tx_mask_78f40f088b985",
                        "liste_de_liens": "tx_mask_ee223932dc689",
                        "portfolio": "tx_mask_06c3f48f65fe8",
                        "team_section": "tx_mask_d5a65c67cf56c",
                        "text_section": "tx_mask_fde3473f3a2ae"
                    },
                    "key": "header_layout",
                    "label": {
                        "accordeon": "Type",
                        "boite__onglet": "Type",
                        "boite_contact": "Type",
                        "call_to_action": "Type",
                        "carousel": "Type",
                        "client": "Type",
                        "en_chiffres": "Type",
                        "footer_right": "Type",
                        "footer_text": "Type",
                        "joueur": "Type",
                        "liste_de_liens": "Type",
                        "portfolio": "Type",
                        "team_section": "Type",
                        "text_section": "Type"
                    },
                    "order": {
                        "accordeon": 3,
                        "boite__onglet": 3,
                        "boite_contact": 3,
                        "call_to_action": 3,
                        "carousel": 3,
                        "client": 3,
                        "en_chiffres": 3,
                        "footer_right": 3,
                        "footer_text": 3,
                        "joueur": 3,
                        "liste_de_liens": 3,
                        "portfolio": 3,
                        "team_section": 3,
                        "text_section": 3
                    },
                    "type": "select"
                },
                "header_position": {
                    "coreField": 1,
                    "description": {
                        "accordeon": "",
                        "boite__onglet": "",
                        "boite_contact": "",
                        "carousel": "",
                        "en_chiffres": "",
                        "liste_de_liens": ""
                    },
                    "fullKey": "header_position",
                    "inPalette": 1,
                    "inlineParent": {
                        "boite__onglet": "tx_mask_e14a0e6a5050d",
                        "boite_contact": "tx_mask_c6f0b1d87fc2d",
                        "carousel": "tx_mask_bb18378b91701",
                        "en_chiffres": "tx_mask_39c99960742f5",
                        "liste_de_liens": "tx_mask_ee223932dc689"
                    },
                    "key": "header_position",
                    "label": {
                        "boite__onglet": "Alignement",
                        "boite_contact": "Alignement",
                        "carousel": "Alignement",
                        "en_chiffres": "Alignement",
                        "liste_de_liens": "Alignement"
                    },
                    "order": {
                        "boite__onglet": 4,
                        "boite_contact": 4,
                        "carousel": 4,
                        "en_chiffres": 4,
                        "liste_de_liens": 4
                    },
                    "type": "select"
                },
                "subheader": {
                    "coreField": 1,
                    "description": {
                        "accordeon": "",
                        "boite__onglet": "",
                        "boite_contact": "",
                        "call_to_action": "",
                        "carousel": "",
                        "client": "",
                        "en_chiffres": "",
                        "footer_right": "",
                        "footer_text": "",
                        "joueur": "",
                        "liste_de_liens": "",
                        "portfolio": "",
                        "team_section": "",
                        "text_section": ""
                    },
                    "fullKey": "subheader",
                    "inPalette": 1,
                    "inlineParent": {
                        "accordeon": "tx_mask_3dd24da6a0889",
                        "boite__onglet": "tx_mask_e14a0e6a5050d",
                        "boite_contact": "tx_mask_c6f0b1d87fc2d",
                        "call_to_action": "tx_mask_b2f3d03dcbe76",
                        "carousel": "tx_mask_bb18378b91701",
                        "client": "tx_mask_91a176ac43a7f",
                        "en_chiffres": "tx_mask_39c99960742f5",
                        "footer_right": "tx_mask_b16debec2a20a",
                        "footer_text": "tx_mask_e14b299a41ea6",
                        "joueur": "tx_mask_78f40f088b985",
                        "liste_de_liens": "tx_mask_ee223932dc689",
                        "portfolio": "tx_mask_06c3f48f65fe8",
                        "team_section": "tx_mask_d5a65c67cf56c",
                        "text_section": "tx_mask_fde3473f3a2ae"
                    },
                    "key": "subheader",
                    "label": {
                        "accordeon": "Sous-Titre",
                        "boite__onglet": "Sous-Titre",
                        "boite_contact": "Sous-Titre",
                        "call_to_action": "Sous-Titre",
                        "carousel": "Sous-Titre",
                        "client": "Sous-Titre",
                        "en_chiffres": "Sous-Titre",
                        "footer_right": "Sous-Titre",
                        "footer_text": "Sous-Titre",
                        "joueur": "Sous-Titre",
                        "liste_de_liens": "Sous-Titre",
                        "portfolio": "Sous-Titre",
                        "team_section": "Sous-Titre",
                        "text_section": "Sous-Titre"
                    },
                    "order": {
                        "accordeon": 5,
                        "boite__onglet": 6,
                        "boite_contact": 6,
                        "call_to_action": 5,
                        "carousel": 6,
                        "client": 5,
                        "en_chiffres": 6,
                        "footer_right": 5,
                        "footer_text": 5,
                        "joueur": 5,
                        "liste_de_liens": 6,
                        "portfolio": 5,
                        "team_section": 5,
                        "text_section": 5
                    },
                    "type": "string"
                },
                "tx_mask_39c99960742f5": {
                    "config": {
                        "type": "palette"
                    },
                    "fullKey": "tx_mask_39c99960742f5",
                    "key": "39c99960742f5",
                    "type": "palette"
                },
                "tx_mask_7d1cdb2eece8a": {
                    "config": {
                        "type": "linebreak"
                    },
                    "description": {
                        "en_chiffres": ""
                    },
                    "fullKey": "tx_mask_7d1cdb2eece8a",
                    "inPalette": 1,
                    "inlineParent": {
                        "en_chiffres": "tx_mask_39c99960742f5"
                    },
                    "key": "7d1cdb2eece8a",
                    "label": {
                        "en_chiffres": ""
                    },
                    "order": {
                        "en_chiffres": 2
                    },
                    "type": "linebreak"
                },
                "tx_mask_94c2c9a8e018c": {
                    "config": {
                        "type": "linebreak"
                    },
                    "description": {
                        "en_chiffres": ""
                    },
                    "fullKey": "tx_mask_94c2c9a8e018c",
                    "inPalette": 1,
                    "inlineParent": {
                        "en_chiffres": "tx_mask_39c99960742f5"
                    },
                    "key": "94c2c9a8e018c",
                    "label": {
                        "en_chiffres": ""
                    },
                    "order": {
                        "en_chiffres": 5
                    },
                    "type": "linebreak"
                },
                "tx_mask_chiffre_repeat": {
                    "config": {
                        "appearance": {
                            "enabledControls": {
                                "delete": 1,
                                "dragdrop": 1,
                                "hide": 1,
                                "info": 1,
                                "localize": 1,
                                "new": 1,
                                "sort": 1
                            },
                            "levelLinksPosition": "top",
                            "showAllLocalizationLink": 1,
                            "showNewRecordLink": 1,
                            "showPossibleLocalizationRecords": 1,
                            "useSortable": 1
                        },
                        "foreign_field": "parentid",
                        "foreign_sortby": "sorting",
                        "foreign_table": "--inlinetable--",
                        "foreign_table_field": "parenttable",
                        "type": "inline"
                    },
                    "fullKey": "tx_mask_chiffre_repeat",
                    "key": "chiffre_repeat",
                    "type": "inline"
                }
            }
        },
        "tx_mask_chiffre_repeat": {
            "sql": {
                "tx_mask_chiffre_item": {
                    "tx_mask_chiffre_repeat": {
                        "tx_mask_chiffre_item": "int(11) DEFAULT '0' NOT NULL"
                    }
                },
                "tx_mask_description_item": {
                    "tx_mask_chiffre_repeat": {
                        "tx_mask_description_item": "mediumtext"
                    }
                }
            },
            "tca": {
                "tx_mask_chiffre_item": {
                    "config": {
                        "eval": "required,int",
                        "type": "input"
                    },
                    "fullKey": "tx_mask_chiffre_item",
                    "inlineParent": "tx_mask_chiffre_repeat",
                    "key": "chiffre_item",
                    "label": "Chiffre",
                    "order": 1,
                    "type": "integer"
                },
                "tx_mask_description_item": {
                    "config": {
                        "eval": "required",
                        "type": "text",
                        "wrap": "virtual"
                    },
                    "fullKey": "tx_mask_description_item",
                    "inlineParent": "tx_mask_chiffre_repeat",
                    "key": "description_item",
                    "label": "Description",
                    "order": 2,
                    "type": "text"
                }
            }
        }
    }
}
